task	group	Correct	Incorrect														
1	A	12	3														
1	C	4	9														
1	OO	1	14														
2	A	16	2														
2	C	9	4														
2	OO	4	11														
3	A	3	15														
3	C	7	6														
3	OO	1	14														
4	A	15	3														
4	C	4	9														
4	OO	14	1														
5	A	15	3														
5	C	7	6														
5	OO	13	2														
6	A	10	8														
6	C	4	9														
6	OO	11	4														
																	
Task 1	C	I	C	I	c() for R	p-value								p value	Holm		
A-C	12	3	4	9	12,3,4,9	0,02002		T1: A-OO	12	3	1	14	12,3,1,14	0,0001157	0,002777778	1	sig
A-OO	12	3	1	14	12,3,1,14	0,0001157		T2: A-OO	16	2	4	11	16,2,4,11	0,0003938	0,002941176	2	sig
C-OO	4	9	1	14	4,9,1,14	0,1528		T4: C-OO	4	9	14	1	4,9,14,1	0,001068	0,003125	3	sig
								T4: A-C	15	3	4	9	15,3,4,9	0,007518	0,003333333	4	non-sig
Task 2	C	I	C	I	c() for R	p-value		T3: C-OO	7	6	1	14	7,6,1,14	0,01077	0,003571429	5	non-sig
A-C	16	2	9	4	16,2,9,4	0,2076		T1: A-C	12	3	4	9	12,3,4,9	0,02002	0,003846154	6	non-sig
A-OO	16	2	4	11	16,2,4,11	0,0003938		T3: A-C	3	15	7	6	3,15,7,6	0,05155	0,004166667	7	non-sig
C-OO	9	4	4	11	9,4,4,11	0,05571		T2: C-OO	9	4	4	11	9,4,4,11	0,05571	0,004545455	8	non-sig
								T6: C-OO	4	9	11	4	4,9,11,4	0,05571	0,005	9	non-sig
Task 3	C	I	C	I	c() for R	p-value		T5: C-OO	7	6	13	2	7,6,13,2	0,09565	0,005555556	10	non-sig
A-C	3	15	7	6	3,15,7,6	0,05155		T5: A-C	15	3	7	6	15,3,7,6	0,1143	0,00625	11	non-sig
A-OO	3	15	1	14	3,15,1,14	0,6074		T1: C-OO	4	9	1	14	4,9,1,14	0,1528	0,007142857	12	non-sig
C-OO	7	6	1	14	7,6,1,14	0,01077		T2: A-C	16	2	9	4	16,2,9,4	0,2076	0,008333333	13	non-sig
								T6: A-C	10	8	4	9	10,8,4,9	0,2749	0,01	14	non-sig
Task 4	C	I	C	I	c() for R	p-value		T6: A-OO	10	8	11	4	10,8,11,4	0,4688	0,0125	15	non-sig
A-C	15	3	4	9	15,3,4,9	0,007518		T3: A-OO	3	15	1	14	3,15,1,14	0,6074	0,016666667	16	non-sig
A-OO	15	3	14	1	15,3,14,1	0,6074		T4: A-OO	15	3	14	1	15,3,14,1	0,6074	0,025	17	non-sig
C-OO	4	9	14	1	4,9,14,1	0,001068		T5: A-OO	15	3	13	2	15,3,13,2	1	0,05	18	non-sig
																	
Task 5	C	I	C	I	c() for R	p-value											
A-C	15	3	7	6	15,3,7,6	0,1143											
A-OO	15	3	13	2	15,3,13,2	1											
C-OO	7	6	13	2	7,6,13,2	0,09565											
																	
Task 6	C	I	C	I	c() for R	p-value											
A-C	10	8	4	9	10,8,4,9	0,2749											
A-OO	10	8	11	4	10,8,11,4	0,4688											
C-OO	4	9	11	4	4,9,11,4	0,05571											
